[{
    "id" : "stage",
    "type" : "ClutterStage",
    "width" : 800,
    "height" : 480,
    "signals" : [],
    "children" : [{
        "id" : "box",
        "type" : "ToggleBox",
        "width" : 800,
        "height" : 480,
        "layout-manager" : { "type" : "ClutterFixedLayout" },
        "children" : [{
            "id": "volume-viewport",     
            "type" : "ClutterActor",
            "width" : 800,
            "height" : 420,
            "y": 60, 
            "layout-manager" : { "type" : "ClutterFixedLayout" },
            "children" : [{
                "id": "spinner",
                "type" : "ClutterActor",
                "x": 400, 
                "y": 300, 
                "z-position": 150,
                "width": 1, 
                "height": 1,
                "depth": 1,
                "children": [{
                    "id": "volume-wrapper", 
                    "type": "ClutterActor", 
                    "pivot-point": [0.5, 0.5],
                    "pivot-point-z": 0.5,
                    "width": 1, 
                    "height": 1,
                    "depth": 1,
                    "rotation-angle-x": 180.0,
                    "scale-x": 1.2, 
                    "scale-y": 1.2, 
                    "scale-z": 1.2,
                    "children": [
                        {
                            "id": "plate", 
                            "type" : "ToggleModel",
                            "x": -100.0, 
                            "z-position": 0, 
                            "y": 0, 
                            "scale-x": 200.0, 
                            "scale-y": 200.0, 
                            "scale-z": 200.0
                        },{
                            "id": "model", 
                            "type" : "ToggleModel", 
                            "rotation-angle-x": -90.0
                        }
                    ]    
                }] 
            }]            
        },
        {
            "id": "btn-bar", 
            "type": "ClutterActor", 
            "children": [
                {
                    "id": "btn-prev", 
                    "type": "MxButton",
                    "label": "<<", 
                    "style-class": "main",
                    "x": 20, 
                    "y": 15
                },
                {
	                "id": "btn-heat", 
	                "type": "MxButton", 
	                "label": "Preheat",
                    "style-class": "main",
                    "is_toggle": true, 
	                "x": 228, 
	                "y": 15	
                }, 
                {
	                "id": "lbl-stat", 
	                "type": "MxLabel", 
	                "x": 360, 
	                "y": 30
                }, 
                {
	                "id": "btn-print", 
	                "type": "MxButton", 
	                "label": "Print",
                    "style-class": "main",
                    "is_toggle": true, 
                    "x": 490, 
	                "y": 15
                }, 
                {
	                "id": "btn-next", 
	                "type": "MxButton", 
	                "label": ">>",
                    "style-class": "main",
	                "x": 700, 
	                "y": 15	
                },
                {
	                "id": "btn-ntty", 
	                "type": "MxButton", 
	                "label": "Update",
                    "style-class": "main",
	                "x": 700, 
	                "y": 400	
                }
            ]
        },
        {
            "id": "msg", 
            "type" : "ClutterBox",
            "width" : 800,
            "height" : 280,
            "color": "#000",
            "x": 0, 
            "y": 100,            
            "z-position": 300,
            "opacity" : 0,
            "layout-manager" : { "type" : "ClutterFixedLayout" }, 
            "children" : [ {
                "id": "txt", 
                "type": "ClutterText",
                "font-description": "Sans 48",
                "color": "#FFF",
                "height": 280, 
                "y": 100
            }]
        }]
    }]
}]

